  n          t      P_0t         r
  0   0.002740  0.999964  0.013187
  1   0.005479  0.999928  0.013187
  2   0.008219  0.999892  0.013187
  3   0.010959  0.999855  0.013187
  4   0.013699  0.999819  0.013187
  5   0.016438  0.999783  0.013187
  6   0.019231  0.999746  0.013187
  7   0.038462  0.999493  0.013187
  8   0.083333  0.998902  0.013187
  9   0.166667  0.997685  0.013906
 10   0.250000  0.996470  0.014145
 11   0.500000  0.992323  0.015414
 12   1.000000  0.982362  0.017795
 13   2.000000  0.957057  0.021946
 14   5.000000  0.856475  0.030986
 15  10.000000  0.674421  0.039390
 16  15.000000  0.553856  0.039390
 17  20.000000  0.454844  0.039390
 18  30.000000  0.306757  0.039390
