\relax 
\@writefile{toc}{\contentsline {section}{\numberline {1}Introduction}{1}\protected@file@percent }
\@writefile{toc}{\contentsline {subsection}{\numberline {1.1}Interest rates}{1}\protected@file@percent }
\@writefile{toc}{\contentsline {subsection}{\numberline {1.2}Martingales}{2}\protected@file@percent }
\@writefile{lof}{\contentsline {figure}{\numberline {1}{\ignorespaces Testing the martingale property of the processes (order of the sections: log-normal, variance-gamma, Heston. Dashed lines as separators. Each section is a 1 year period, starting from $S_0$.). Result is, at least \emph  {graphically}, satisfying.}}{2}\protected@file@percent }
\newlabel{mart}{{1}{2}}
\newlabel{stochvol}{{1}{2}}
\@writefile{lot}{\contentsline {table}{\numberline {1}{\ignorespaces Montecarlo prices, 100000 repetitions, parameters as in the exam, interest rate is 0 and time horizon is 1 year. (More tables below)}}{2}\protected@file@percent }
\newlabel{prices}{{1}{2}}
\@writefile{toc}{\contentsline {section}{\numberline {2}The Log-Normal case}{5}\protected@file@percent }
\@writefile{lof}{\contentsline {figure}{\numberline {2}{\ignorespaces Log-normal data}}{5}\protected@file@percent }
\newlabel{ln}{{2}{5}}
\@writefile{toc}{\contentsline {section}{\numberline {3}The Variance-Gamma case}{5}\protected@file@percent }
\@writefile{lof}{\contentsline {figure}{\numberline {3}{\ignorespaces Variance-Gamma data}}{5}\protected@file@percent }
\newlabel{vg}{{3}{5}}
\@writefile{toc}{\contentsline {section}{\numberline {4}The Heston case}{6}\protected@file@percent }
\@writefile{lof}{\contentsline {figure}{\numberline {4}{\ignorespaces Heston data}}{6}\protected@file@percent }
\newlabel{hes}{{4}{6}}
\@writefile{lof}{\contentsline {figure}{\numberline {5}{\ignorespaces Stochastic volatility for Heston, example.}}{7}\protected@file@percent }
\newlabel{hesvol}{{5}{7}}
\@writefile{toc}{\contentsline {section}{\numberline {5}Comparing VaR}{7}\protected@file@percent }
\@writefile{lot}{\contentsline {table}{\numberline {2}{\ignorespaces Right tail: data relative to a simulation with 10 millions of trajectories.}}{7}\protected@file@percent }
\@writefile{toc}{\contentsline {section}{\numberline {6}Some notes about the code}{8}\protected@file@percent }
\@writefile{toc}{\contentsline {subsection}{\numberline {6.1}A brief list of functions}{8}\protected@file@percent }
\@writefile{toc}{\contentsline {subsection}{\numberline {6.2}The procedure}{8}\protected@file@percent }
\@writefile{toc}{\contentsline {subsection}{\numberline {6.3}A small comment}{8}\protected@file@percent }
